 3.0  9.0 22.0 14.0 13.0 11.0 10.0  8.0  1.0  1.0  4.0
 3.0 12.0 21.0 16.0 12.0 10.0 10.0  6.0  2.0  1.0  4.0
 3.0 13.0 23.0 15.0 12.0 10.0  9.0  6.0  1.0  1.0  4.0
 4.0 11.0 20.0 15.0 12.0 11.0  9.0  8.0  0.0  2.0  3.0
 4.0  9.0 20.0 14.0 13.0 11.0  9.0  7.0  2.0  1.0  5.0
 4.0  8.0 21.0 15.0 12.0 10.0  9.0  8.0  2.0  2.0  4.0
 0.0  2.0  5.0  9.0 14.0 20.0 20.0 14.0  5.0  2.0  0.0
 1.0  2.0  6.0  8.0 15.0 19.0 22.0 12.0  4.0  1.0  0.0
 0.0  2.0  6.0 10.0 13.0 21.0 19.0 15.0  4.0  1.0  1.0
 0.0  3.0  7.0  9.0 14.0 19.0 19.0 13.0  4.0  3.0  1.0
 4.0  2.0  2.0  5.0  8.0  9.0 10.0 12.0 21.0  8.0  4.0
 5.0  1.0  2.0  5.0  7.0  9.0 11.0 13.0 20.0  9.0  4.0
 4.0  1.0  1.0  3.0  6.0  9.0 10.0 12.0 23.0 13.0  3.0
 4.0  1.0  2.0  3.0  6.0 10.0 10.0 12.0 21.0 12.0  3.0
 4.0  1.0  1.0  4.0  8.0 10.0 11.0 13.0 22.0  9.0  3.0
21.0 13.0 10.0  6.0  2.0  0.0  1.0  1.0  8.0 15.0 19.0
19.0 15.0  8.0  6.0  2.0  1.0  0.0  1.0 10.0 12.0 22.0
19.0 13.0 14.0  9.0  7.0  3.0  0.0  1.0  4.0  8.0 19.0
 8.0  8.0  9.0  8.0  8.0  9.0  8.0  8.0  8.0  8.0  9.0
 9.0  7.0  9.0  9.0  8.0  8.0  7.0  9.0  6.0 10.0  9.0
13.0 12.0 11.0 10.0  9.0  9.0  8.0  7.0  6.0  4.0  4.0
15.0 13.0 12.0 10.0  9.0  8.0  9.0  8.0  5.0  3.0  2.0
 4.0  4.0  6.0  7.0  7.0  8.0  8.0 10.0 11.0 12.0 13.0
