GFORTRAN module created from test.f90 on Sat Dec  7 16:38:56 2013
If you edit this, you'll get what you deserve.

(() () () () () () () () () () () () () () () () () () () () ())

()

()

()

()

(2 'interp_library' 'interp_library' 1 ((MODULE UNKNOWN-INTENT
UNKNOWN-PROC UNKNOWN) (UNKNOWN 0 ()) 0 0 () () 0 () ())
3 'neville_interp' 'interp_library' 1 ((PROCEDURE UNKNOWN-INTENT
MODULE-PROC DECL FUNCTION) (REAL 4 ()) 4 0 (5 6 7 8) () 3 () ())
9 'linear_interp' 'interp_library' 1 ((PROCEDURE UNKNOWN-INTENT
MODULE-PROC DECL FUNCTION) (REAL 4 ()) 10 0 (11 12 13) () 9 () ())
14 'cubic_interp' 'interp_library' 1 ((PROCEDURE UNKNOWN-INTENT
MODULE-PROC DECL FUNCTION) (REAL 4 ()) 15 0 (16 17) () 14 () ())
18 'bicubic_interp' 'interp_library' 1 ((PROCEDURE UNKNOWN-INTENT
MODULE-PROC DECL FUNCTION) (REAL 4 ()) 19 0 (20 21 22) () 18 () ())
21 'y' '' 19 ((VARIABLE IN UNKNOWN-PROC UNKNOWN DUMMY) (REAL 4 ()) 0 0 ()
() 0 () ())
20 'p' '' 19 ((VARIABLE IN UNKNOWN-PROC UNKNOWN DIMENSION DUMMY) (REAL 4
()) 0 0 () (2 EXPLICIT (CONSTANT (INTEGER 4 ()) 0 '1') (CONSTANT (
INTEGER 4 ()) 0 '4') (CONSTANT (INTEGER 4 ()) 0 '1') (CONSTANT (INTEGER
4 ()) 0 '4')) 0 () ())
17 'w' '' 15 ((VARIABLE IN UNKNOWN-PROC UNKNOWN DUMMY) (REAL 4 ()) 0 0 ()
() 0 () ())
16 'p' '' 15 ((VARIABLE IN UNKNOWN-PROC UNKNOWN DIMENSION DUMMY) (REAL 4
()) 0 0 () (1 EXPLICIT (CONSTANT (INTEGER 4 ()) 0 '1') (CONSTANT (
INTEGER 4 ()) 0 '4')) 0 () ())
13 'xi' '' 10 ((VARIABLE IN UNKNOWN-PROC UNKNOWN DUMMY) (REAL 4 ()) 0 0
() () 0 () ())
12 'x2' '' 10 ((VARIABLE IN UNKNOWN-PROC UNKNOWN DUMMY) (REAL 4 ()) 0 0
() () 0 () ())
5 'psub' '' 4 ((VARIABLE IN UNKNOWN-PROC UNKNOWN DIMENSION DUMMY) (REAL
4 ()) 0 0 () (1 EXPLICIT (CONSTANT (INTEGER 4 ()) 0 '1') (VARIABLE (
INTEGER 4 ()) 0 8 ())) 0 () ())
6 'prof' '' 4 ((VARIABLE IN UNKNOWN-PROC UNKNOWN DIMENSION DUMMY) (REAL
4 ()) 0 0 () (1 EXPLICIT (CONSTANT (INTEGER 4 ()) 0 '1') (VARIABLE (
INTEGER 4 ()) 0 8 ())) 0 () ())
8 'n' '' 4 ((VARIABLE IN UNKNOWN-PROC UNKNOWN DUMMY) (INTEGER 4 ()) 0 0
() () 0 () ())
7 'inp' '' 4 ((VARIABLE IN UNKNOWN-PROC UNKNOWN DUMMY) (REAL 4 ()) 0 0 ()
() 0 () ())
11 'x1' '' 10 ((VARIABLE IN UNKNOWN-PROC UNKNOWN DUMMY) (REAL 4 ()) 0 0
() () 0 () ())
22 'x' '' 19 ((VARIABLE IN UNKNOWN-PROC UNKNOWN DUMMY) (REAL 4 ()) 0 0 ()
() 0 () ())
)

('bicubic_interp' 0 18 'cubic_interp' 0 14 'linear_interp' 0 9
'interp_library' 0 2 'neville_interp' 0 3)
